3 Best Practices for Writing R Scripts | Intermediate R
…
  result
}

The code for the function includes several calls to message to print
informational messages. It’s a good idea to include these so that you (or other
users) can verify that the paths to files are correct and can quickly diagnose
any bugs you encounter. You can read more about various ways to print output in
R in Section 3.5.

Once again, test that the code works by sourcing the script and calling main:

## # A tibble: 125 × 8
##    form                     average_retail_price units1   preparation_yield_fa…¹
##    <chr>                    <chr>                <chr>    <chr>                 
##  1 Fresh1                   1.6155336441000001   per pou… 0.9                   
##  2 Applesauce2              1.0491006433000001   per pou… 1                     
##  3 Juice, ready to drink3   0.63113252779999995  per pint 1                     
##  4 Frozen4                  0.51046574550000001  per pint 1                     
##  5 Fresh1                   1.5675153914496354   per pou… 0.9                   
##  6 Applesauce2              1.0778249292591484   per pou… 1                     
##  7 Juice, ready to drink3   0.72728771310499396  per pint 1                     
##  8 Frozen4                  0.5378679155367232   per pint 1                     
##  9 Fresh1                   3.0871378169999999   per pou… 0.93                  
## 10 Canned, packed in juice2 1.4742760156000001   per pou… 1                     
## # ℹ 115 more rows
## # ℹ abbreviated name: ¹​preparation_yield_factor
## # ℹ 4 more variables: size_of_a_cup_equivalent <chr>, units2 <chr>,
## #   average_price_per_cup_equivalent <chr>, fruit <chr>
…
