4 Reshaping Data & Automating Tasks | Intermediate R
…
As a final adjustment, you can use the tolower function to convert the column
names to lowercase, so that they’re easier to use during analysis:

names(smart) = tolower(names(smart))
smart

## # A tibble: 72 × 4
##    month fiscal_year riders date      
##    <chr> <chr>        <dbl> <date>    
##  1 Jul   2018            NA 2017-07-01
##  2 Jul   2019         63864 2018-07-01
##  3 Jul   2020         62851 2019-07-01
##  4 Jul   2021          9427 2020-07-01
##  5 Jul   2022         24627 2021-07-01
##  6 Jul   2023         43752 2022-07-01
##  7 Aug   2018         54484 2017-08-01
##  8 Aug   2019         74384 2018-08-01
##  9 Aug   2020         65352 2019-08-01
## 10 Aug   2021          8703 2020-08-01
## # ℹ 62 more rows
…
