2 Tidy & Relational Data | Intermediate R
…
2.2.6.1 Three or More Tables

A join operates on two tables, but you can combine multiple tables by doing
several joins in a row. Let’s look at an example that combines checkouts,
books, and borrowers in order to see how many books were checked out by
students, faculty, and staff.

# list the borrowers who checked out the most books
left_join(checkouts, books, by="book_id") |>
  left_join(borrowers, by="borrower_id") |>
  group_by(borrower_id) |>
  summarize(account_type=first(user_group), n_checkouts = n()) |>
  arrange(desc(n_checkouts))

## # A tibble: 319 × 3
##    borrower_id account_type      n_checkouts
##          <dbl> <chr>                   <int>
##  1         217 Faculty and Staff          30
##  2         449 Faculty and Staff          29
##  3         524 Faculty and Staff          22
##  4         569 Faculty and Staff          21
##  5          19 Faculty and Staff          19
##  6         381 Faculty and Staff          17
##  7          20 Faculty and Staff          16
##  8         500 Faculty and Staff          15
##  9         666 Faculty and Staff          15
## 10         129 Faculty and Staff          14
## # ℹ 309 more rows
…
